id;votes;priority;severity;precedence
44908;433;0.6;0.1;
59588;25;0.6;0.4;
59974;31;0.8;0.1;
60899;91;0.6;0.85;
76205;8;0.4;0.85;
78006;21;0.4;0.1;
78259;0;0.4;1.0;
81805;8;0.6;0.1;
82430;40;0.6;0.55;
83301;23;0.4;0.55;
86649;0;0.6;0.1;
86850;9;0.6;0.7;
88391;0;0.6;0.55;
89576;0;0.6;1.0;
90863;6;0.6;0.25;
92337;75;0.4;0.55;
93087;51;0.6;0.4;
98955;6;1.0;0.25;
100203;29;0.4;0.1;
101118;28;0.6;0.25;
101457;57;0.8;1.0;
102868;20;0.8;0.55;
104491;6;0.2;0.7;
104523;48;0.8;0.55;
107003;41;1.0;0.1;
107710;65;0.4;0.25;
107744;0;0.2;0.55;
109338;80;0.6;0.55;
111553;29;0.6;0.4;
112525;6;1.0;0.1;
112750;0;0.2;0.1;
113546;0;0.6;0.7;
117283;51;0.6;0.25;
117648;4;1.0;0.4;
119787;2;0.4;1.0;
120245;0;0.4;0.25;
120384;1;0.2;1.0;
121088;17;0.6;0.25;
122195;20;0.6;0.1;
124361;5;1.0;0.1;
124977;27;0.4;0.1;
125125;76;1.0;0.85;
125738;110;0.2;0.55;
126323;9;0.4;0.85;
126731;1;0.2;0.1;
126740;0;0.6;0.7;
126772;81;0.6;0.1;
126811;5;0.8;1.0;
127549;5;0.4;0.85;
127761;12;0.6;0.1;
127812;18;1.0;0.1;
128193;6;1.0;0.1;
129204;9;0.8;0.4;
129368;8;1.0;0.1;
131604;3;0.4;1.0;
133593;16;0.4;0.85;
134346;22;0.6;0.1;
134781;0;0.6;0.1;
135737;94;0.2;0.85;
135884;45;0.2;0.7;
138956;20;0.4;0.1;
140024;21;0.6;1.0;
140513;3;0.6;0.55;
140514;0;0.8;0.1;
140767;8;0.4;0.1;
141071;15;0.8;0.1;
141855;0;0.2;0.55;
141946;127;1.0;0.7;
142915;0;0.8;0.4;
143399;6;1.0;0.25;
143647;5;0.8;0.7;
145294;9;0.2;0.85;
145664;72;0.2;0.4;
146181;8;0.6;0.1;
146192;1;0.2;0.1;
146239;110;0.8;0.1;
146477;24;0.2;0.4;
148390;24;1.0;0.4;
148446;0;0.8;0.7;
151461;0;0.6;0.55;
152837;6;0.6;0.7;
153109;74;0.8;0.7;
153183;6;1.0;1.0;
153197;5;0.8;0.1;
153843;0;1.0;1.0;
154043;0;0.4;0.1;
154380;0;0.2;0.55;
154810;21;0.4;0.1;
154899;1;0.8;0.1;
156262;10;0.6;0.1;
156532;0;0.4;0.4;
156634;8;1.0;0.1;
159138;2;0.6;0.7;
159779;7;0.2;0.7;
159906;0;0.8;0.1;
160005;28;1.0;0.55;
160529;80;0.4;0.1;
160987;1;0.4;0.25;
160988;11;0.8;0.4;
161961;0;0.2;0.55;
162376;8;1.0;0.25;
162702;20;1.0;0.25;
163654;8;0.6;0.1;
164074;4;0.6;1.0;
164792;29;0.4;0.85;
166624;3;0.8;0.4;
166670;4;0.2;0.55;
168683;0;1.0;0.25;
171163;8;0.8;1.0;
171183;12;0.6;0.1;
171662;0;0.4;0.85;
172208;1;0.2;0.55;
172630;3;0.8;0.25;
173699;2;0.4;0.55;
174231;28;0.6;0.1;
174486;48;0.2;0.1;
175347;1;0.8;0.55;
175649;21;0.8;0.1;
175735;0;0.2;0.55;
175854;8;1.0;0.1;
176095;0;0.8;0.1;
176809;12;0.6;1.0;
176810;4;0.8;0.1;
177019;5;0.4;0.1;
177367;0;0.2;1.0;
178581;16;0.8;0.1;
179775;0;0.4;0.1;
179839;5;0.8;0.55;
181974;11;0.8;0.25;
181991;0;0.2;0.4;
186066;4;0.6;0.1;
186079;0;1.0;0.1;
186081;0;1.0;1.0;
186083;0;1.0;0.85;
186084;6;1.0;0.1;
187408;26;1.0;0.4;
188241;0;0.8;0.1;
188870;0;0.8;0.1;
189178;5;0.4;1.0;
189471;3;0.2;0.55;
189569;6;0.2;0.1;
189688;0;0.6;0.85;
190947;30;1.0;0.85;
191028;6;0.8;0.7;
192098;24;0.6;0.4;
192458;10;0.8;1.0;
192686;5;0.4;0.1;
193009;9;0.4;0.7;
193723;7;0.6;0.1;
195689;2;0.6;0.1;
196675;22;1.0;0.1;
196808;20;0.6;0.25;
197068;10;0.4;0.7;
197168;5;0.4;0.55;
197283;26;0.6;0.4;
197873;4;0.2;0.25;
198625;28;1.0;0.1;
199989;3;0.6;0.1;
200317;6;0.6;1.0;
200319;3;0.6;0.4;
201055;2;0.6;0.1;
201057;44;0.6;1.0;
202085;0;0.6;0.4;
203355;6;0.6;0.1;
205305;3;0.8;0.25;
205447;20;0.6;0.55;
206961;0;0.6;0.55;
207533;7;0.6;0.85;
209372;10;0.6;0.1;
210042;3;0.2;0.1;
211662;23;0.2;0.4;
214532;3;0.6;0.25;
214695;0;0.6;0.1;
215599;0;0.4;0.7;
215723;5;0.6;0.7;
216689;2;0.8;1.0;
219892;7;0.6;0.55;
221603;20;0.6;0.1;
224194;9;0.4;0.85;
226771;14;0.6;0.1;
226797;20;1.0;0.1;
226865;8;0.6;0.1;
226866;4;1.0;1.0;
226876;0;0.8;0.7;
226905;20;0.6;0.7;
227290;20;0.8;1.0;
235862;61;0.2;0.25;
236291;7;0.8;0.4;
236367;15;0.6;0.85;
238249;3;1.0;0.1;
241129;21;0.6;1.0;
241502;48;1.0;0.7;
241829;7;1.0;0.1;
241877;26;0.6;0.1;
242506;3;0.4;1.0;
242704;27;1.0;0.1;
243499;0;0.2;1.0;
243740;19;0.2;0.1;
244090;7;1.0;0.55;
244424;48;0.4;0.25;
244699;0;0.6;0.1;
245419;26;1.0;0.4;
248755;9;1.0;0.1;
248756;12;0.2;0.25;
248777;20;1.0;0.4;
253886;30;0.6;0.4;
256379;24;0.8;0.85;
259599;0;0.6;0.7;
261459;26;0.8;0.55;
267508;31;0.4;0.1;
267618;44;0.4;1.0;
267975;5;0.6;0.25;
268913;5;0.8;1.0;
269361;30;0.8;0.1;
269408;5;1.0;0.4;
272421;7;1.0;0.85;
274102;99;0.4;0.25;
277348;0;1.0;0.25;
278483;0;0.2;0.1;
278610;5;1.0;0.1;
279054;15;1.0;0.1;
279318;6;0.6;0.1;
280378;27;0.2;1.0;
280645;31;0.6;0.4;
280798;0;1.0;0.4;
282866;20;1.0;0.4;
283145;8;0.6;1.0;
283227;0;1.0;0.55;
284250;0;0.2;0.7;
284474;63;0.6;0.55;
287644;8;0.8;0.7;
288413;7;1.0;0.7;
288835;0;0.8;0.1;
288944;26;0.4;0.1;
292485;8;0.4;0.4;
292766;20;0.6;0.1;
293133;8;0.2;0.85;
293365;20;1.0;0.25;
293512;9;0.6;0.1;
293901;0;0.4;0.7;
294050;0;0.6;0.55;
294396;0;0.8;0.4;
296156;5;0.4;0.1;
296500;7;1.0;0.55;
296932;0;0.6;0.4;
297883;0;0.8;0.4;
298533;3;0.4;0.85;
298559;1;1.0;1.0;
299028;7;0.8;0.4;
300453;19;0.6;0.85;
302577;0;1.0;0.7;
302579;4;0.4;0.1;
304342;0;0.6;0.1;
306373;0;0.6;0.1;
306828;2;0.6;0.25;
307052;7;0.6;0.4;
307102;1;0.8;0.7;
308614;16;0.6;0.4;
309096;15;0.8;0.4;
309279;6;0.6;0.7;
309493;40;0.8;0.4;
309553;28;0.4;0.4;
309595;12;0.4;0.7;
310073;9;0.2;0.1;
310314;0;0.8;0.4;
310785;23;0.6;0.1;
311508;22;0.6;0.85;
311524;29;0.4;0.1;
311549;9;1.0;0.1;
311608;1;0.2;0.4;
312169;42;0.6;0.1;
312430;2;0.6;0.4;
312630;1;0.4;0.55;
312795;0;0.4;0.1;
313022;12;0.6;0.25;
313455;224;0.2;0.4;
313549;2;0.6;0.1;
313581;1;0.6;0.7;
313809;0;0.4;0.7;
314378;14;0.2;0.4;
314381;4;0.2;0.1;
314395;88;0.2;0.55;
314752;0;1.0;0.4;
315141;1;0.4;0.55;
315189;0;0.4;0.25;
315519;20;0.8;0.1;
315727;0;0.8;0.1;
315767;4;0.8;1.0;
315806;0;0.6;0.4;
316663;26;1.0;0.85;
316975;9;0.6;0.55;
317278;0;0.6;0.7;
317576;7;1.0;1.0;
317964;0;0.6;0.85;
318232;4;0.6;0.55;
318354;3;0.2;0.4;
318387;3;0.6;0.7;
318457;24;1.0;0.1;
318546;1;0.6;0.1;
318595;8;0.2;0.25;
318596;20;0.6;0.55;
318618;21;0.6;0.4;
318711;6;0.4;0.1;
318945;5;0.4;0.1;
319014;9;0.8;1.0;
319396;26;0.6;0.55;
319761;0;0.2;0.4;
320375;8;0.6;1.0;
320376;16;0.2;0.4;
321080;16;0.2;0.85;
321136;3;0.6;0.7;
321801;0;0.8;0.4;
322004;6;0.8;0.7;
322532;0;0.8;0.1;
322570;16;0.6;0.1;
322655;0;0.6;0.7;
323060;7;0.2;0.85;
323132;0;0.6;0.4;
323153;2;0.6;0.4;
323404;20;0.4;0.7;
323429;28;1.0;0.1;
323603;8;0.2;0.1;
323649;7;1.0;1.0;
323815;22;0.6;0.55;
324024;3;0.6;0.4;
324087;11;0.6;0.4;
324129;4;0.8;1.0;
324376;16;0.6;0.1;
324386;8;0.4;0.4;
324940;0;1.0;0.25;
325035;4;0.6;0.7;
325039;6;0.6;0.1;
325576;0;0.2;0.25;
325807;7;0.4;0.1;
325877;5;0.6;0.85;
325933;7;0.6;0.4;
326064;0;1.0;0.55;
326869;6;0.6;0.55;
327803;8;0.8;0.1;
327842;7;0.6;0.55;
328104;1;0.6;0.4;
328170;5;0.6;0.25;
328179;0;0.6;1.0;
328184;1;0.2;0.55;
328312;0;0.6;0.25;
328348;4;0.6;0.85;
328569;2;0.6;0.1;
328728;6;0.6;0.4;
328837;38;0.4;0.1;
328891;26;0.6;0.55;
329247;2;0.8;0.85;
329320;16;0.6;0.4;
329555;20;0.6;0.55;
329910;11;0.2;0.7;
330203;13;1.0;0.25;
330221;0;0.6;0.4;
330275;9;0.6;0.55;
330357;8;0.2;0.85;
330419;0;0.6;0.4;
330634;3;0.2;0.1;
330750;11;0.2;1.0;
330843;126;0.6;0.1;
330852;2;0.4;0.4;
330862;3;0.6;0.4;
331281;13;1.0;1.0;
331299;0;0.2;0.85;
331307;5;0.2;0.1;
331465;10;0.4;0.55;
331688;5;0.6;0.1;
331736;0;0.2;0.1;
331803;5;0.8;0.55;
331817;0;0.2;0.85;
331929;9;1.0;0.1;
332122;21;0.6;0.85;
332264;0;0.6;0.7;
332281;6;0.8;0.7;
332298;8;1.0;0.25;
332414;3;1.0;0.1;
332600;7;0.8;0.1;
332605;6;0.2;0.25;
332623;8;0.6;0.4;
332717;0;0.6;0.1;
332935;5;0.6;0.4;
332949;8;1.0;1.0;
333032;0;0.6;0.85;
333050;0;0.8;0.4;
333130;3;0.6;0.4;
333194;0;0.2;0.1;
333199;0;0.6;0.1;
333203;0;0.6;0.55;
333323;5;0.6;1.0;
333329;40;0.8;0.85;
333337;0;0.8;0.25;
333393;8;0.6;0.4;
333401;4;0.4;0.7;
333402;0;0.4;0.4;
333409;45;0.4;0.55;
333446;26;0.6;0.4;
333450;25;0.8;0.1;
333464;24;0.2;0.1;
333517;0;0.6;1.0;
333577;0;0.2;0.55;
333627;0;1.0;0.4;
333636;1;0.8;0.1;
333656;0;0.2;0.55;
333677;3;1.0;0.1;
333812;14;1.0;0.1;
333919;7;0.6;0.4;
333941;60;0.6;0.25;
333967;0;0.8;0.4;
334028;8;0.8;0.7;
334032;0;0.4;0.7;
334399;0;1.0;0.85;
334485;10;0.6;0.7;
334550;0;0.8;0.1;
334706;3;0.6;0.55;
334749;3;1.0;0.4;
334984;20;0.2;0.85;
335121;0;0.2;0.25;
335545;0;1.0;0.25;
335590;23;0.2;0.7;
335608;17;0.6;0.25;
335737;0;0.2;0.85;
335760;4;0.4;0.4;
335855;7;0.6;0.55;
335941;3;0.8;0.55;
335988;1;0.6;0.25;
336085;4;0.6;0.4;
336195;2;0.6;0.7;
336547;3;0.8;0.85;
336676;4;0.4;0.4;
336766;8;0.6;0.25;
337641;26;0.6;0.4;
337719;0;0.6;0.1;
337730;0;0.2;1.0;
337731;6;0.6;0.85;
338031;0;0.4;0.4;
338066;8;0.6;0.7;
338111;22;0.6;0.55;
338113;28;0.6;0.4;
338236;7;0.6;0.85;
338270;5;0.6;1.0;
338369;8;0.8;0.4;
338442;4;0.6;1.0;
338551;1;0.6;0.7;
338777;3;0.4;0.4;
338819;0;0.2;0.1;
339061;3;0.4;0.7;
339066;7;0.2;0.1;
339067;1;0.6;0.4;
339337;0;0.4;0.4;
339394;6;0.2;0.4;
339574;11;0.2;0.55;
339603;8;0.8;0.1;
339627;7;1.0;0.7;
339676;0;1.0;0.7;
339872;0;0.6;0.55;
339894;0;0.6;1.0;
340366;0;0.4;0.4;
340521;2;0.8;0.25;
340670;0;0.6;0.4;
340756;28;0.4;1.0;
340778;1;0.6;0.85;
341129;8;0.4;0.4;
341196;0;0.6;0.4;
341301;0;0.8;0.55;
341617;0;0.4;0.7;
341646;4;0.6;0.7;
341680;3;0.6;0.55;
341967;12;0.6;0.55;
342006;6;0.6;0.85;
342265;6;1.0;0.4;
342321;1;0.2;0.4;
342322;2;0.6;0.4;
342466;10;0.8;0.85;
342507;0;0.2;0.4;
342512;0;0.6;0.55;
342594;0;0.2;0.4;
342659;2;0.6;0.1;
342779;0;0.8;0.25;
342811;9;0.6;0.7;
342937;0;0.6;0.7;
342986;0;0.6;0.55;
343060;9;0.8;0.4;
343087;0;0.2;0.1;
343088;0;0.6;0.55;
343158;4;1.0;0.4;
343255;4;0.6;0.85;
343261;0;0.2;0.55;
343286;1;0.4;0.7;
343313;21;0.2;0.85;
343327;8;1.0;0.4;
343329;136;0.4;0.4;
343506;4;0.6;0.85;
343629;65;0.4;0.7;
343725;0;0.8;1.0;
343888;12;1.0;0.55;
343916;15;0.6;0.7;
343979;8;0.2;1.0;
344074;0;0.6;0.4;
344112;9;1.0;1.0;
344267;7;0.2;0.4;
344276;6;0.4;0.7;
344290;0;0.8;0.1;
344341;10;1.0;0.4;
344366;3;0.6;0.4;
344374;0;0.6;0.4;
344414;14;1.0;0.55;
344442;1;0.8;0.7;
344449;5;0.6;0.1;
344481;6;0.6;0.4;
344502;8;0.6;0.7;
344504;0;0.2;0.4;
344505;6;0.6;0.1;
344551;0;1.0;1.0;
344562;0;0.2;0.4;
344566;1;0.6;0.55;
344584;7;1.0;0.4;
344632;0;1.0;0.1;
344636;2;0.8;0.7;
344720;5;0.4;0.1;
344826;3;1.0;0.55;
344940;8;1.0;0.85;
344976;0;0.6;0.85;
345003;0;1.0;0.1;
345027;5;1.0;0.4;
345189;0;0.4;0.7;
345218;3;0.6;0.1;
345253;3;1.0;0.4;
345254;0;0.2;0.1;
345356;5;0.2;0.25;
345455;8;0.2;0.1;
345504;0;0.6;0.85;
345534;5;1.0;0.7;
345541;12;0.8;0.4;
345542;0;1.0;0.7;
345602;3;0.6;0.55;
345731;3;0.6;0.7;
345775;0;0.6;1.0;
345908;10;0.8;0.55;
345930;10;0.4;0.1;
345931;8;0.8;0.1;
346101;7;0.8;0.55;
346102;5;0.2;0.55;
346386;6;0.2;1.0;
346464;0;1.0;1.0;