id;votes;priority;severity;precedence
44908;431;0.6;0.1;
59588;20;0.6;0.1;
59974;30;0.2;0.1;
60899;91;0.6;0.1;
76205;0;0.6;0.85;
78006;21;0.4;0.1;
78259;0;0.8;0.25;
81805;1;0.6;0.85;
82430;40;0.6;0.55;
83301;23;0.4;0.4;
86649;0;0.6;0.1;
86850;3;0.6;0.1;
88391;0;0.8;0.55;
89576;0;0.6;0.1;
90863;6;0.6;0.55;
92337;67;0.6;0.25;
93087;51;0.6;0.1;
98955;3;1.0;0.25;
100203;21;0.6;0.1;
101118;28;0.6;0.85;
101457;50;1.0;0.25;
102868;20;0.8;0.1;
104491;0;0.2;0.1;
104523;40;0.6;0.55;
107003;40;0.6;0.1;
107710;61;0.6;0.25;
107744;0;0.2;0.85;
109338;80;0.6;0.1;
111553;25;0.6;0.85;
112525;0;0.6;0.1;
112750;0;0.2;0.1;
113546;0;0.4;0.25;
117283;51;0.8;0.7;
117648;0;1.0;0.85;
119787;2;1.0;0.85;
120245;0;0.4;0.1;
120384;0;0.2;0.85;
121088;13;0.6;0.4;
122195;20;0.6;0.1;
124361;1;0.6;0.1;
124977;27;0.6;0.1;
125125;70;0.6;0.85;
125738;106;0.6;0.55;
126323;6;0.4;0.1;
126731;0;0.6;0.1;
126740;0;0.6;0.7;
126772;68;0.6;0.1;
126811;5;0.6;1.0;
127549;5;0.4;0.85;
127761;5;0.6;0.1;
127812;10;0.6;0.1;
128193;1;0.6;0.1;
129204;4;0.6;0.4;
129368;8;0.6;0.1;
131604;0;0.6;0.1;
133593;10;0.4;0.7;
134346;22;0.6;0.1;
134781;0;0.6;0.25;
135737;80;0.6;1.0;
135884;45;0.4;0.7;
138956;20;0.6;0.1;
140024;21;0.6;0.1;
140513;0;0.6;0.55;
140514;0;1.0;0.1;
140767;8;1.0;0.1;
141071;15;0.6;0.1;
141855;0;0.6;0.1;
141946;120;0.6;0.7;
142915;0;0.6;0.4;
143399;0;0.8;1.0;
143647;0;0.6;0.7;
145294;8;0.8;0.85;
145664;70;0.6;1.0;
146181;5;0.6;0.1;
146192;1;0.2;0.1;
146239;105;0.6;0.1;
146477;20;0.4;0.55;
148390;11;1.0;0.1;
148446;0;0.4;0.1;
151461;0;0.6;0.1;
152837;6;0.6;0.4;
153109;70;0.6;0.1;
153183;6;0.8;0.25;
153197;0;0.6;0.1;
153843;0;0.6;0.55;
154043;0;0.2;0.1;
154380;0;0.6;0.1;
154810;21;0.6;0.1;
154899;1;0.8;0.1;
156262;8;0.6;0.55;
156532;0;0.2;0.1;
156634;0;1.0;0.1;
159138;2;0.6;0.25;
159779;1;0.6;0.7;
159906;0;0.8;0.1;
160005;20;0.6;0.1;
160529;80;0.6;0.1;
160987;0;0.6;0.25;
160988;3;0.6;0.1;
161961;0;0.2;0.55;
162376;8;0.4;0.1;
162702;20;0.6;0.25;
163654;0;0.6;0.1;
164074;0;0.6;0.1;
164792;24;1.0;0.85;
166624;0;1.0;0.1;
166670;4;0.2;0.1;
168683;0;1.0;0.25;
171163;0;0.4;0.1;
171183;10;0.6;0.1;
171662;0;0.6;0.1;
172208;1;0.8;0.1;
172630;0;0.6;0.25;
173699;0;1.0;0.1;
174231;20;0.8;0.1;
174486;47;0.6;0.1;
175347;1;0.6;0.4;
175649;21;0.8;0.1;
175735;0;0.2;0.1;
175854;0;0.8;0.1;
176095;0;1.0;0.1;
176809;7;0.6;0.1;
176810;4;0.4;0.1;
177019;0;0.4;0.4;
177367;0;0.6;0.1;
178581;0;0.6;0.1;
179775;0;0.6;0.1;
179839;1;0.6;0.1;
181974;3;0.6;0.1;
181991;0;1.0;0.4;
186066;1;0.6;0.1;
186079;0;0.6;0.1;
186081;0;1.0;0.4;
186083;0;0.6;0.1;
186084;0;0.6;0.1;
187408;20;0.6;0.4;
188241;0;0.6;0.1;
188870;0;0.6;0.1;
189178;0;0.6;0.1;
189471;0;0.6;0.55;
189569;0;0.6;0.1;
189688;0;0.6;0.1;
190947;30;0.6;0.1;
191028;0;0.4;0.1;
192098;20;0.6;0.1;
192458;10;0.8;0.85;
192686;0;0.6;0.1;
193009;9;0.6;0.1;
193723;0;0.4;0.1;
195689;2;0.6;0.1;
196675;20;0.6;0.1;
196808;20;0.6;0.1;
197068;10;0.4;1.0;
197168;5;0.6;0.1;
197283;20;0.6;1.0;
197873;4;0.2;0.1;
198625;20;0.6;0.1;
199989;3;0.6;0.1;
200317;6;0.6;0.55;
200319;0;0.6;0.4;
201055;0;0.8;0.1;
201057;41;0.6;1.0;
202085;0;0.6;0.4;
203355;0;0.6;0.1;
205305;0;0.8;0.25;
205447;20;0.6;0.4;
206961;0;1.0;0.1;
207533;0;0.6;0.1;
209372;7;0.6;0.1;
210042;0;1.0;0.1;
211662;23;0.2;0.1;
214532;0;0.6;0.1;
214695;0;0.6;0.1;
215599;0;0.8;0.1;
215723;3;0.6;0.1;
216689;0;0.8;0.1;
219892;7;0.2;0.7;
221603;20;0.6;0.1;
224194;6;0.6;0.1;
226771;6;0.6;0.1;
226797;20;1.0;0.1;
226865;0;0.6;0.1;
226866;0;0.6;0.1;
226876;0;0.8;0.55;
226905;20;1.0;0.7;
227290;20;0.8;0.55;
235862;61;0.2;0.4;
236291;0;0.6;0.1;
236367;0;0.6;0.1;
238249;0;0.6;0.1;
241129;20;0.6;0.1;
241502;40;1.0;0.1;
241829;2;0.6;0.1;
241877;20;0.6;0.1;
242506;0;0.6;0.1;
242704;20;0.6;0.1;
243499;0;0.6;0.1;
243740;5;0.6;0.1;
244090;0;1.0;0.55;
244424;40;0.6;0.1;
244699;0;0.6;0.1;
245419;20;1.0;0.1;
248755;5;0.6;0.1;
248756;5;0.2;0.1;
248777;20;1.0;0.1;
253886;23;0.6;0.1;
256379;22;0.4;1.0;
259599;0;0.6;0.1;
261459;20;0.6;0.7;
267508;24;0.4;0.1;
267618;41;1.0;1.0;
267975;3;0.6;0.25;
268913;0;0.2;0.4;
269361;25;0.6;0.85;
269408;0;0.6;0.4;
272421;0;0.8;0.85;
274102;95;1.0;0.1;
277348;0;1.0;0.25;
278483;0;0.6;0.1;
278610;2;0.6;0.1;
279054;15;0.6;0.1;
279318;0;0.6;0.1;
280378;20;0.8;0.85;
280645;25;0.6;0.4;
280798;0;0.6;0.4;
282866;20;0.6;0.25;
283145;8;0.6;1.0;
283227;0;1.0;0.1;
284250;0;0.6;0.4;
284474;60;0.4;0.1;
287644;2;0.4;0.1;
288413;2;0.4;0.7;
288835;0;0.6;0.1;
288944;23;0.6;0.1;
292485;0;0.8;0.4;
292766;20;0.6;0.1;
293133;0;0.2;0.25;
293365;20;0.6;0.1;
293512;0;0.6;0.1;
293901;0;0.6;0.25;
294050;0;0.6;0.1;
294396;0;0.6;0.4;
296156;0;0.4;0.1;
296500;0;0.2;0.1;
296932;0;0.6;0.1;
297883;0;0.6;0.4;
298533;0;0.4;0.1;
298559;0;0.6;0.1;
299028;0;0.4;0.4;
300453;15;0.6;0.25;
302577;0;0.6;0.7;
302579;0;0.6;0.1;
304342;0;0.6;0.1;
306373;0;0.6;0.1;
306828;0;0.6;0.55;
307052;7;0.6;0.1;
307102;0;0.6;0.7;
308614;8;0.6;0.4;
309096;7;0.2;0.4;
309279;0;0.6;0.4;
309493;40;0.6;0.4;
309553;20;0.6;0.4;
309595;8;0.8;0.4;
310073;0;0.6;0.1;
310314;0;0.6;0.4;
310785;23;0.6;0.4;
311508;22;0.4;0.4;
311524;26;0.4;0.1;
311549;1;1.0;0.1;
311608;0;0.6;0.4;
312169;41;0.6;0.1;
312430;0;0.6;0.25;
312630;0;0.4;0.55;
312795;0;0.6;0.1;
313022;7;0.6;0.25;
313455;219;0.4;0.4;
313549;2;0.6;0.1;
313581;0;0.6;0.1;
313809;0;0.6;0.4;
314378;6;0.6;0.7;
314381;1;0.2;0.1;
314395;88;0.6;0.25;
314752;0;0.6;0.4;
315141;1;0.6;0.4;
315189;0;0.6;0.25;
315519;20;0.6;0.1;
315727;0;0.8;0.1;
315767;0;1.0;0.85;
315806;0;0.6;0.4;
316663;20;0.6;0.85;
316975;5;0.6;0.4;
317278;0;0.6;0.25;
317576;7;1.0;0.4;
317964;0;0.6;0.4;
318232;0;0.6;0.55;
318354;3;0.6;0.4;
318387;0;0.4;0.4;
318457;20;1.0;0.1;
318546;0;0.6;0.1;
318595;8;0.6;0.4;
318596;20;1.0;0.1;
318618;20;0.6;0.25;
318711;0;0.4;0.55;
318945;0;0.4;0.1;
319014;7;0.6;0.1;
319396;20;0.6;0.4;
319761;0;0.6;0.4;
320375;0;0.6;1.0;
320376;10;0.6;0.4;
321080;5;0.6;0.85;
321136;0;0.6;0.7;
321801;0;0.6;0.4;
322004;0;0.6;0.7;
322532;0;0.2;0.25;
322570;3;0.4;0.1;
322655;0;0.6;0.1;
323060;7;0.6;0.4;
323132;0;0.6;0.4;
323153;0;0.6;0.1;
323404;12;0.6;0.1;
323429;20;0.6;0.1;
323603;0;0.6;0.1;
323649;7;1.0;1.0;
323815;20;0.6;0.4;
324024;1;0.6;0.4;
324087;7;0.6;0.1;
324129;0;1.0;1.0;
324376;5;0.6;0.55;
324386;0;0.6;0.4;
324940;0;0.6;0.1;
325035;0;0.6;0.7;
325039;6;0.6;0.7;
325576;0;0.4;0.4;
325807;0;1.0;0.1;
325877;5;0.6;0.4;
325933;0;0.6;0.55;
326064;0;1.0;0.55;
326869;0;0.6;0.25;
327803;0;0.6;0.1;
327842;7;0.6;0.4;
328104;1;0.6;0.4;
328170;0;0.6;0.85;
328179;0;0.6;0.1;
328184;0;0.2;0.55;
328312;0;1.0;0.4;
328348;0;0.6;0.25;
328569;2;0.6;0.1;
328728;0;0.6;0.4;
328837;31;0.6;0.4;
328891;20;0.6;0.1;
329247;0;0.4;0.7;
329320;0;0.6;1.0;
329555;20;0.6;0.25;
329910;4;0.2;0.25;
330203;0;1.0;0.55;
330221;0;0.6;1.0;
330275;0;0.6;0.1;
330357;0;0.6;0.4;
330419;0;0.6;0.85;
330634;3;0.6;0.1;
330750;5;0.2;1.0;
330843;120;0.6;0.1;
330852;0;1.0;0.4;
330862;3;0.6;0.4;
331281;5;1.0;0.25;
331299;0;1.0;0.25;
331307;5;0.6;1.0;
331465;0;0.6;0.55;
331688;0;0.6;0.1;
331736;0;0.6;0.85;
331803;0;0.6;0.4;
331817;0;0.6;0.25;
331929;0;0.4;0.1;
332122;20;0.6;1.0;
332264;0;0.6;0.25;
332281;0;0.8;0.55;
332298;0;0.6;0.25;
332414;1;0.2;0.1;
332600;7;0.6;0.1;
332605;5;0.6;0.25;
332623;0;0.6;0.4;
332717;0;0.6;0.1;
332935;0;0.6;0.4;
332949;0;0.6;0.4;
333032;0;0.6;0.55;
333050;0;0.8;0.4;
333130;0;0.6;0.4;
333194;0;0.6;0.1;
333199;0;0.2;0.1;
333203;0;0.6;0.4;
333323;5;0.6;0.4;
333329;40;0.6;0.55;
333337;0;0.6;0.25;
333393;0;0.6;0.4;
333401;0;0.6;0.55;
333402;0;0.2;0.4;
333409;40;1.0;0.1;
333446;26;0.6;1.0;
333450;20;0.6;0.1;
333464;20;0.6;0.1;
333517;0;0.6;0.55;
333577;0;0.2;0.7;
333627;0;0.6;0.4;
333636;1;0.6;0.1;
333656;0;0.6;0.7;
333677;0;0.6;0.85;
333812;1;0.6;0.1;
333919;0;0.6;0.4;
333941;60;0.6;0.4;
333967;0;0.6;0.4;
334028;0;0.6;0.4;
334032;0;0.6;0.4;
334399;0;1.0;0.85;
334485;3;0.6;0.1;
334550;0;0.8;0.1;
334706;2;0.6;0.1;
334749;3;0.6;0.25;
334984;20;0.6;0.1;
335121;0;0.2;0.55;
335545;0;0.6;0.25;
335590;20;0.8;0.7;
335608;6;0.6;0.4;
335737;0;0.6;0.4;
335760;0;0.6;0.4;
335855;5;0.6;0.4;
335941;0;0.6;0.1;
335988;0;0.6;0.25;
336085;0;0.6;0.4;
336195;0;0.6;0.55;
336547;3;0.8;0.25;
336676;0;0.6;0.4;
336766;8;0.6;0.1;
337641;26;0.6;0.4;
337719;0;0.6;0.1;
337730;0;0.6;0.4;
337731;2;1.0;0.85;
338031;0;0.8;0.4;
338066;8;0.6;0.55;
338111;20;0.6;0.4;
338113;20;0.6;0.7;
338236;0;0.6;0.4;
338270;0;0.6;1.0;
338369;0;0.4;0.7;
338442;0;0.6;1.0;
338551;1;0.6;0.4;
338777;3;0.4;0.1;
338819;0;0.2;0.1;
339061;3;0.6;0.1;
339066;7;0.2;0.4;
339067;0;0.6;0.4;
339337;0;0.6;0.4;
339394;0;0.2;0.4;
339574;0;0.6;0.55;
339603;5;1.0;0.7;
339627;5;0.6;0.1;
339676;0;1.0;0.7;
339872;0;0.6;0.4;
339894;0;0.6;0.4;
340366;0;0.6;0.7;
340521;0;0.6;0.85;
340670;0;0.6;0.4;
340756;28;0.4;0.1;
340778;1;0.6;0.1;
341129;0;0.4;0.4;
341196;0;0.8;0.4;
341301;0;1.0;0.55;
341617;0;0.6;0.7;
341646;0;0.4;0.7;
341680;3;0.6;0.55;
341967;5;0.6;0.55;
342006;2;1.0;0.25;
342265;6;0.6;0.4;
342321;1;0.2;0.4;
342322;0;0.4;0.4;
342466;0;0.8;0.85;
342507;0;0.2;0.4;
342512;0;0.6;0.55;
342594;0;0.8;0.4;
342659;0;0.6;0.7;
342779;0;0.8;0.25;
342811;0;0.6;0.1;
342937;0;0.6;0.4;
342986;0;0.6;0.55;
343060;1;0.6;0.4;
343087;0;0.6;0.4;
343088;0;0.6;0.1;
343158;0;0.6;0.4;
343255;4;0.6;0.85;
343261;0;0.2;0.55;
343286;0;0.6;0.1;
343313;20;0.8;0.85;
343327;0;0.2;0.4;
343329;136;0.6;0.7;
343506;4;0.6;0.85;
343629;65;0.6;0.85;
343725;0;0.6;0.55;
343888;0;0.6;0.25;
343916;0;0.6;0.55;
343979;0;0.4;0.55;
344074;0;0.6;1.0;
344112;0;0.6;0.4;
344267;4;0.2;0.1;
344276;0;0.4;0.4;
344290;0;0.6;0.1;
344341;9;0.2;0.4;
344366;0;0.2;0.4;
344374;0;0.6;0.4;
344414;6;1.0;0.1;
344442;1;0.6;0.25;
344449;0;0.6;0.1;
344481;4;0.6;0.1;
344502;8;0.6;0.7;
344504;0;0.6;0.4;
344505;0;0.6;0.1;
344551;0;0.6;0.1;
344562;0;0.6;0.4;
344566;1;0.6;0.25;
344584;3;0.6;0.4;
344632;0;0.8;0.4;
344636;0;0.8;0.7;
344720;0;0.6;0.55;
344826;0;0.6;0.55;
344940;0;1.0;0.25;
344976;0;0.6;0.4;
345003;0;0.6;0.1;
345027;0;0.6;0.55;
345189;0;0.2;0.7;
345218;0;0.6;0.1;
345253;3;0.2;0.4;
345254;0;1.0;0.1;
345356;0;0.6;0.1;
345455;0;0.6;0.4;
345504;0;0.6;0.4;
345534;5;1.0;1.0;
345541;7;0.2;0.4;
345542;0;1.0;0.7;
345602;0;0.6;1.0;
345731;3;0.6;0.4;
345775;0;0.6;1.0;
345908;5;0.6;0.55;
345930;7;0.6;0.4;
345931;0;0.6;0.7;
346101;7;0.8;0.55;
346102;5;0.6;0.55;
346386;0;0.6;1.0;
346464;0;0.6;0.4;